EESchema Schematic File Version 4
EELAYER 30 0
EELAYER END
$Descr A4 11693 8268
encoding utf-8
Sheet 1 1
Title ""
Date ""
Rev ""
Comp ""
Comment1 ""
Comment2 ""
Comment3 ""
Comment4 ""
$EndDescr
$Comp
L Interface_UART:MAX232 U2
U 1 1 5EAEE54A
P 6700 2350
F 0 "U2" H 6150 3400 50  0000 C CNN
F 1 "MAX232" H 7150 3400 50  0000 C CNN
F 2 "Package_SO:SOIC-16_3.9x9.9mm_P1.27mm" H 6750 1300 50  0001 L CNN
F 3 "http://www.ti.com/lit/ds/symlink/max232.pdf" H 6700 2450 50  0001 C CNN
	1    6700 2350
	1    0    0    -1  
$EndComp
$Comp
L Connector:DB9_Female_MountingHoles J3
U 1 1 5EB001EA
P 10300 2850
F 0 "J3" H 10480 2852 50  0000 L CNN
F 1 "RS-232" H 10480 2761 50  0000 L CNN
F 2 "Connector_Dsub:DSUB-9_Male_EdgeMount_P2.77mm" H 10300 2850 50  0001 C CNN
F 3 "" H 10300 2850 50  0001 C CNN
	1    10300 2850
	1    0    0    -1  
$EndComp
Text GLabel 5700 2450 0    50   Input ~ 0
TXD
Text GLabel 5700 2850 0    50   Input ~ 0
RXD
Wire Wire Line
	5900 2850 5700 2850
Text GLabel 9875 2850 0    50   Input ~ 0
RS232_TX
Text GLabel 9875 2650 0    50   Input ~ 0
RS232_RX
Wire Wire Line
	10000 2650 9875 2650
Wire Wire Line
	10000 2850 9875 2850
Text GLabel 7650 2850 2    50   Input ~ 0
RS232_RX
Text GLabel 7650 2450 2    50   Input ~ 0
RS232_TX
$Comp
L power:GND #PWR09
U 1 1 5EB0B9E2
P 6700 3600
F 0 "#PWR09" H 6700 3350 50  0001 C CNN
F 1 "GND" H 6705 3427 50  0000 C CNN
F 2 "" H 6700 3600 50  0001 C CNN
F 3 "" H 6700 3600 50  0001 C CNN
	1    6700 3600
	1    0    0    -1  
$EndComp
Wire Wire Line
	6700 3550 6700 3600
$Comp
L power:VCC #PWR08
U 1 1 5EB0C81D
P 6700 1075
F 0 "#PWR08" H 6700 925 50  0001 C CNN
F 1 "VCC" H 6717 1248 50  0000 C CNN
F 2 "" H 6700 1075 50  0001 C CNN
F 3 "" H 6700 1075 50  0001 C CNN
	1    6700 1075
	1    0    0    -1  
$EndComp
Wire Wire Line
	6700 1075 6700 1100
$Comp
L Device:C_Small C4
U 1 1 5EB0DE63
P 5825 1600
F 0 "C4" H 5675 1675 50  0000 L CNN
F 1 "1uF" H 5650 1525 50  0000 L CNN
F 2 "Capacitor_SMD:C_0603_1608Metric_Pad1.08x0.95mm_HandSolder" H 5825 1600 50  0001 C CNN
F 3 "~" H 5825 1600 50  0001 C CNN
	1    5825 1600
	1    0    0    -1  
$EndComp
$Comp
L Device:C_Small C6
U 1 1 5EB0F0F6
P 7575 1600
F 0 "C6" H 7600 1675 50  0000 L CNN
F 1 "1uF" H 7600 1525 50  0000 L CNN
F 2 "Capacitor_SMD:C_0603_1608Metric_Pad1.08x0.95mm_HandSolder" H 7575 1600 50  0001 C CNN
F 3 "~" H 7575 1600 50  0001 C CNN
	1    7575 1600
	1    0    0    -1  
$EndComp
$Comp
L Device:C_Small C7
U 1 1 5EB0FB07
P 7675 1950
F 0 "C7" V 7625 2025 50  0000 C CNN
F 1 "1uF" V 7725 1825 50  0000 C CNN
F 2 "Capacitor_SMD:C_0603_1608Metric_Pad1.08x0.95mm_HandSolder" H 7675 1950 50  0001 C CNN
F 3 "~" H 7675 1950 50  0001 C CNN
	1    7675 1950
	0    1    1    0   
$EndComp
$Comp
L Device:C_Small C8
U 1 1 5EB10ACE
P 7675 2250
F 0 "C8" V 7725 2325 50  0000 C CNN
F 1 "1uF" V 7625 2150 50  0000 C CNN
F 2 "Capacitor_SMD:C_0603_1608Metric_Pad1.08x0.95mm_HandSolder" H 7675 2250 50  0001 C CNN
F 3 "~" H 7675 2250 50  0001 C CNN
	1    7675 2250
	0    1    1    0   
$EndComp
Wire Wire Line
	5900 1450 5825 1450
Wire Wire Line
	5825 1450 5825 1500
Wire Wire Line
	5825 1700 5825 1750
Wire Wire Line
	5825 1750 5900 1750
Wire Wire Line
	7500 1450 7575 1450
Wire Wire Line
	7575 1450 7575 1500
Wire Wire Line
	7500 1750 7575 1750
Wire Wire Line
	7575 1750 7575 1700
Wire Wire Line
	7500 1950 7575 1950
Wire Wire Line
	7500 2250 7575 2250
Wire Wire Line
	7775 2250 7825 2250
Wire Wire Line
	7825 2250 7825 2100
Wire Wire Line
	7825 1950 7775 1950
$Comp
L power:GND #PWR011
U 1 1 5EB142D5
P 7925 2150
F 0 "#PWR011" H 7925 1900 50  0001 C CNN
F 1 "GND" H 8075 2075 50  0000 C CNN
F 2 "" H 7925 2150 50  0001 C CNN
F 3 "" H 7925 2150 50  0001 C CNN
	1    7925 2150
	1    0    0    -1  
$EndComp
Wire Wire Line
	7825 2100 7925 2100
Wire Wire Line
	7925 2100 7925 2150
Connection ~ 7825 2100
Wire Wire Line
	7825 2100 7825 1950
$Comp
L Device:C_Small C5
U 1 1 5EB174F7
P 6875 1100
F 0 "C5" H 6900 1175 50  0000 L CNN
F 1 "1uF" H 6900 1025 50  0000 L CNN
F 2 "Capacitor_SMD:C_0603_1608Metric_Pad1.08x0.95mm_HandSolder" H 6875 1100 50  0001 C CNN
F 3 "~" H 6875 1100 50  0001 C CNN
	1    6875 1100
	0    1    1    0   
$EndComp
$Comp
L power:GND #PWR010
U 1 1 5EB1843E
P 7425 1125
F 0 "#PWR010" H 7425 875 50  0001 C CNN
F 1 "GND" H 7430 952 50  0000 C CNN
F 2 "" H 7425 1125 50  0001 C CNN
F 3 "" H 7425 1125 50  0001 C CNN
	1    7425 1125
	1    0    0    -1  
$EndComp
Wire Wire Line
	6775 1100 6700 1100
Connection ~ 6700 1100
Wire Wire Line
	6700 1100 6700 1150
Wire Wire Line
	6975 1100 7425 1100
Wire Wire Line
	7425 1100 7425 1125
$Comp
L power:GND #PWR012
U 1 1 5EB19F2B
P 9925 3525
F 0 "#PWR012" H 9925 3275 50  0001 C CNN
F 1 "GND" H 9930 3352 50  0000 C CNN
F 2 "" H 9925 3525 50  0001 C CNN
F 3 "" H 9925 3525 50  0001 C CNN
	1    9925 3525
	1    0    0    -1  
$EndComp
Wire Wire Line
	10000 3250 9925 3250
NoConn ~ 10000 2450
NoConn ~ 10000 2550
NoConn ~ 10000 3050
NoConn ~ 10000 3150
$Comp
L Interface_USB:CH340G U1
U 1 1 618FAA3D
P 2875 2875
F 0 "U1" H 2600 3425 50  0000 C CNN
F 1 "CH340G" H 3100 3425 50  0000 C CNN
F 2 "Package_SO:SOIC-16_3.9x9.9mm_P1.27mm" H 2925 2325 50  0001 L CNN
F 3 "http://www.datasheet5.com/pdf-local-2195953" H 2525 3675 50  0001 C CNN
	1    2875 2875
	1    0    0    -1  
$EndComp
Text GLabel 9875 2950 0    50   Input ~ 0
RS232_RTS
Text GLabel 9875 2750 0    50   Input ~ 0
RS232_CTS
Wire Wire Line
	10000 2750 9875 2750
Wire Wire Line
	10000 2950 9875 2950
Text Notes 9425 2200 0    50   ~ 0
Cross wired connector for straight cabling
Text GLabel 7650 3050 2    50   Input ~ 0
RS232_CTS
Text GLabel 7650 2650 2    50   Input ~ 0
RS232_RTS
Text GLabel 5700 2650 0    50   Input ~ 0
RTS
Text GLabel 5700 3050 0    50   Input ~ 0
CTS
Text GLabel 3850 2475 2    50   Input ~ 0
TXD
Text GLabel 3850 3275 2    50   Input ~ 0
RTS
Text GLabel 3850 2575 2    50   Input ~ 0
RXD
Text GLabel 3850 2775 2    50   Input ~ 0
CTS
Wire Wire Line
	3450 2475 3275 2475
Wire Wire Line
	3275 2575 3450 2575
Wire Wire Line
	3275 2775 3450 2775
Wire Wire Line
	3275 3275 3450 3275
$Comp
L Device:R_Small R1
U 1 1 61918F00
P 3550 2475
F 0 "R1" V 3475 2400 50  0000 C CNN
F 1 "1K" V 3475 2550 50  0000 C CNN
F 2 "Resistor_SMD:R_0603_1608Metric_Pad0.98x0.95mm_HandSolder" H 3550 2475 50  0001 C CNN
F 3 "~" H 3550 2475 50  0001 C CNN
	1    3550 2475
	0    1    1    0   
$EndComp
$Comp
L Device:R_Small R2
U 1 1 6191B1A3
P 3550 2575
F 0 "R2" V 3625 2500 50  0000 C CNN
F 1 "1K" V 3625 2675 50  0000 C CNN
F 2 "Resistor_SMD:R_0603_1608Metric_Pad0.98x0.95mm_HandSolder" H 3550 2575 50  0001 C CNN
F 3 "~" H 3550 2575 50  0001 C CNN
	1    3550 2575
	0    1    1    0   
$EndComp
$Comp
L Device:R_Small R4
U 1 1 6191C684
P 3550 3275
F 0 "R4" V 3475 3200 50  0000 C CNN
F 1 "1K" V 3475 3350 50  0000 C CNN
F 2 "Resistor_SMD:R_0603_1608Metric_Pad0.98x0.95mm_HandSolder" H 3550 3275 50  0001 C CNN
F 3 "~" H 3550 3275 50  0001 C CNN
	1    3550 3275
	0    1    1    0   
$EndComp
$Comp
L Device:R_Small R3
U 1 1 6191D3F1
P 3550 2775
F 0 "R3" V 3625 2700 50  0000 C CNN
F 1 "1K" V 3625 2875 50  0000 C CNN
F 2 "Resistor_SMD:R_0603_1608Metric_Pad0.98x0.95mm_HandSolder" H 3550 2775 50  0001 C CNN
F 3 "~" H 3550 2775 50  0001 C CNN
	1    3550 2775
	0    1    1    0   
$EndComp
Wire Wire Line
	3650 2475 3850 2475
Wire Wire Line
	3650 2575 3850 2575
Wire Wire Line
	3650 2775 3850 2775
Wire Wire Line
	3650 3275 3850 3275
NoConn ~ 3275 2875
NoConn ~ 3275 2975
NoConn ~ 3275 3075
NoConn ~ 3275 3175
NoConn ~ 2475 2575
$Comp
L power:VCC #PWR06
U 1 1 61926525
P 2875 1975
F 0 "#PWR06" H 2875 1825 50  0001 C CNN
F 1 "VCC" H 2890 2148 50  0000 C CNN
F 2 "" H 2875 1975 50  0001 C CNN
F 3 "" H 2875 1975 50  0001 C CNN
	1    2875 1975
	1    0    0    -1  
$EndComp
$Comp
L Device:C_Small C3
U 1 1 619273CF
P 2775 2125
F 0 "C3" H 2650 2200 50  0000 L CNN
F 1 "10n" H 2600 2050 50  0000 L CNN
F 2 "Capacitor_SMD:C_0603_1608Metric_Pad1.08x0.95mm_HandSolder" H 2775 2125 50  0001 C CNN
F 3 "~" H 2775 2125 50  0001 C CNN
	1    2775 2125
	1    0    0    -1  
$EndComp
Wire Wire Line
	2775 1975 2875 1975
Wire Wire Line
	2775 1975 2775 2025
Wire Wire Line
	2875 1975 2875 2275
Connection ~ 2875 1975
Wire Wire Line
	2775 2225 2775 2275
$Comp
L Device:Crystal_GND24_Small Y1
U 1 1 6192D51F
P 2350 3175
F 0 "Y1" V 2300 3000 50  0000 L CNN
F 1 "12MHz" V 2375 2850 50  0000 L CNN
F 2 "Crystal:Crystal_SMD_3225-4Pin_3.2x2.5mm_HandSoldering" H 2350 3175 50  0001 C CNN
F 3 "~" H 2350 3175 50  0001 C CNN
	1    2350 3175
	0    1    1    0   
$EndComp
$Comp
L Device:C_Small C1
U 1 1 6192F366
P 2025 3075
F 0 "C1" H 1900 3150 50  0000 L CNN
F 1 "22p" H 1850 3000 50  0000 L CNN
F 2 "Capacitor_SMD:C_0603_1608Metric_Pad1.08x0.95mm_HandSolder" H 2025 3075 50  0001 C CNN
F 3 "~" H 2025 3075 50  0001 C CNN
	1    2025 3075
	0    1    1    0   
$EndComp
$Comp
L Device:C_Small C2
U 1 1 619303F3
P 2025 3275
F 0 "C2" H 2075 3350 50  0000 L CNN
F 1 "22p" H 2050 3200 50  0000 L CNN
F 2 "Capacitor_SMD:C_0603_1608Metric_Pad1.08x0.95mm_HandSolder" H 2025 3275 50  0001 C CNN
F 3 "~" H 2025 3275 50  0001 C CNN
	1    2025 3275
	0    1    1    0   
$EndComp
$Comp
L power:GND #PWR03
U 1 1 61931462
P 1825 3400
F 0 "#PWR03" H 1825 3150 50  0001 C CNN
F 1 "GND" H 1830 3227 50  0000 C CNN
F 2 "" H 1825 3400 50  0001 C CNN
F 3 "" H 1825 3400 50  0001 C CNN
	1    1825 3400
	1    0    0    -1  
$EndComp
$Comp
L power:GND #PWR07
U 1 1 61931E8E
P 2875 3575
F 0 "#PWR07" H 2875 3325 50  0001 C CNN
F 1 "GND" H 2880 3402 50  0000 C CNN
F 2 "" H 2875 3575 50  0001 C CNN
F 3 "" H 2875 3575 50  0001 C CNN
	1    2875 3575
	1    0    0    -1  
$EndComp
Wire Wire Line
	2875 3475 2875 3575
Wire Wire Line
	1925 3275 1825 3275
Wire Wire Line
	1825 3275 1825 3400
Wire Wire Line
	2475 3275 2350 3275
Wire Wire Line
	2350 3275 2125 3275
Connection ~ 2350 3275
Wire Wire Line
	2475 3075 2350 3075
Wire Wire Line
	2350 3075 2125 3075
Connection ~ 2350 3075
Wire Wire Line
	1825 3275 1825 3075
Wire Wire Line
	1825 3075 1925 3075
Connection ~ 1825 3275
$Comp
L Connector:USB_B_Micro J1
U 1 1 6193C8CF
P 1075 2775
F 0 "J1" H 1132 3242 50  0000 C CNN
F 1 "USB_B_Micro" H 1132 3151 50  0000 C CNN
F 2 "Connector_USB:USB_Micro-B_Molex-105017-0001" H 1225 2725 50  0001 C CNN
F 3 "~" H 1225 2725 50  0001 C CNN
	1    1075 2775
	1    0    0    -1  
$EndComp
Wire Wire Line
	1375 2775 2075 2775
Wire Wire Line
	1375 2875 1975 2875
$Comp
L power:GND #PWR01
U 1 1 61942D04
P 1075 3250
F 0 "#PWR01" H 1075 3000 50  0001 C CNN
F 1 "GND" H 1080 3077 50  0000 C CNN
F 2 "" H 1075 3250 50  0001 C CNN
F 3 "" H 1075 3250 50  0001 C CNN
	1    1075 3250
	1    0    0    -1  
$EndComp
$Comp
L power:VCC #PWR02
U 1 1 61945023
P 1450 2500
F 0 "#PWR02" H 1450 2350 50  0001 C CNN
F 1 "VCC" H 1465 2673 50  0000 C CNN
F 2 "" H 1450 2500 50  0001 C CNN
F 3 "" H 1450 2500 50  0001 C CNN
	1    1450 2500
	1    0    0    -1  
$EndComp
Wire Wire Line
	1375 2575 1450 2575
Wire Wire Line
	1450 2575 1450 2500
NoConn ~ 1375 2975
NoConn ~ 975  3175
Wire Wire Line
	7500 2450 7650 2450
Wire Wire Line
	7500 2650 7650 2650
$Comp
L Connector:Conn_01x04_Female J2
U 1 1 6191C42E
P 1975 2150
F 0 "J2" V 1950 2425 50  0000 R CNN
F 1 "USB" V 1875 2500 50  0000 R CNN
F 2 "Connector_PinHeader_2.54mm:PinHeader_1x04_P2.54mm_Vertical" H 1975 2150 50  0001 C CNN
F 3 "~" H 1975 2150 50  0001 C CNN
	1    1975 2150
	0    -1   -1   0   
$EndComp
Wire Wire Line
	1975 2350 1975 2875
Connection ~ 1975 2875
Wire Wire Line
	1975 2875 2475 2875
Wire Wire Line
	2075 2350 2075 2775
Connection ~ 2075 2775
Wire Wire Line
	2075 2775 2475 2775
$Comp
L power:GND #PWR04
U 1 1 619240F6
P 1875 2400
F 0 "#PWR04" H 1875 2150 50  0001 C CNN
F 1 "GND" H 1880 2227 50  0000 C CNN
F 2 "" H 1875 2400 50  0001 C CNN
F 3 "" H 1875 2400 50  0001 C CNN
	1    1875 2400
	1    0    0    -1  
$EndComp
Wire Wire Line
	1875 2350 1875 2400
$Comp
L power:VCC #PWR05
U 1 1 61928720
P 2275 2350
F 0 "#PWR05" H 2275 2200 50  0001 C CNN
F 1 "VCC" H 2290 2523 50  0000 C CNN
F 2 "" H 2275 2350 50  0001 C CNN
F 3 "" H 2275 2350 50  0001 C CNN
	1    2275 2350
	1    0    0    -1  
$EndComp
Wire Wire Line
	2175 2350 2175 2425
Wire Wire Line
	2175 2425 2275 2425
Wire Wire Line
	2275 2425 2275 2350
Wire Wire Line
	1075 3175 1075 3250
Wire Wire Line
	9925 3250 9925 3525
NoConn ~ 10300 3450
Wire Wire Line
	5700 2450 5900 2450
Wire Wire Line
	5700 2650 5900 2650
Wire Wire Line
	7500 3050 7650 3050
Wire Wire Line
	7500 2850 7650 2850
Wire Wire Line
	5900 3050 5700 3050
$Comp
L Device:C_Small C9
U 1 1 619E202F
P 3050 1975
F 0 "C9" H 3075 2050 50  0000 L CNN
F 1 "1uF" H 3075 1900 50  0000 L CNN
F 2 "Capacitor_SMD:C_0603_1608Metric_Pad1.08x0.95mm_HandSolder" H 3050 1975 50  0001 C CNN
F 3 "~" H 3050 1975 50  0001 C CNN
	1    3050 1975
	0    1    1    0   
$EndComp
$Comp
L power:GND #PWR013
U 1 1 619E36D3
P 3225 2050
F 0 "#PWR013" H 3225 1800 50  0001 C CNN
F 1 "GND" H 3230 1877 50  0000 C CNN
F 2 "" H 3225 2050 50  0001 C CNN
F 3 "" H 3225 2050 50  0001 C CNN
	1    3225 2050
	1    0    0    -1  
$EndComp
Wire Wire Line
	2875 1975 2950 1975
Wire Wire Line
	3150 1975 3225 1975
Wire Wire Line
	3225 1975 3225 2050
Text Label 2250 2775 0    50   ~ 0
D+
Text Label 2250 2875 0    50   ~ 0
D-
Wire Wire Line
	2250 3175 2225 3175
Wire Wire Line
	2225 3175 2225 3400
Wire Wire Line
	2450 3175 2450 3400
$Comp
L power:GND #PWR?
U 1 1 61988624
P 2225 3400
F 0 "#PWR?" H 2225 3150 50  0001 C CNN
F 1 "GND" H 2230 3227 50  0000 C CNN
F 2 "" H 2225 3400 50  0001 C CNN
F 3 "" H 2225 3400 50  0001 C CNN
	1    2225 3400
	1    0    0    -1  
$EndComp
$Comp
L power:GND #PWR?
U 1 1 61988BC4
P 2450 3400
F 0 "#PWR?" H 2450 3150 50  0001 C CNN
F 1 "GND" H 2455 3227 50  0000 C CNN
F 2 "" H 2450 3400 50  0001 C CNN
F 3 "" H 2450 3400 50  0001 C CNN
	1    2450 3400
	1    0    0    -1  
$EndComp
$EndSCHEMATC
